ID,Packet Size(B),Rate(MB),Rules,Mean(Nanosecond),Median(Nanosecond),Std(Nanosecond)
102, 128, 10, 1200, 8270.8223808704624, 8394.0, 1339.7656245772773
101, 64, 10, 1200, 6279.5589966726393, 6467.0, 1234.7545667681297
103, 256, 10, 1200, 7866.9959625461734, 7828.0, 298.98438097072534
100, 1024, 90, 900, 6469.2544673539514, 6598.0, 509.6249308325597
104, 512, 10, 1200, 6898.4693106704435, 6899.0, 312.69432879998982
107, 128, 20, 1200, 6005.1241730279899, 6780.0, 1615.0782619472566
106, 64, 20, 1200, 5836.3202141057936, 5533.0, 1307.1309224914883
105, 1024, 10, 1200, 7750.5509537721255, 7738.0, 318.7869522447553
108, 256, 20, 1200, 7702.2785757289066, 7530.0, 541.78679557211592
110, 1024, 20, 1200, 7664.5735988327178, 7762.0, 564.73346470617605
10, 1024, 20, 0, 4144.464343945765, 4109.0, 219.31169336797487
113, 256, 40, 1200, 6378.3302084205243, 7043.0, 1267.6035794153358
109, 512, 20, 1200, 7120.677835051546, 7047.0, 567.19136254212356
112, 128, 40, 1200, 5890.8943451177092, 5553.0, 1368.5584376986671
111, 64, 40, 1200, 5450.5900746268653, 5413.0, 1121.1498785155884
117, 128, 60, 1200, 5641.4231853149513, 5654.0, 1044.7050533751953
114, 512, 40, 1200, 7767.919184095017, 7804.0, 342.95094745998745
118, 256, 60, 1200, 5864.604169860494, 5067.0, 1292.7394880719905
115, 1024, 40, 1200, 7007.6341693867034, 7101.0, 515.29012839084987
119, 512, 60, 1200, 7897.8284951330861, 7865.0, 833.62823844254945
120, 1024, 60, 1200, 8695.8977360764402, 8691.0, 563.98085392189307
11, 64, 40, 0, 813.04399822004677, 429.0, 798.93236776125502
123, 256, 90, 1200, 5736.2615787940576, 5553.0, 1164.0401931420972
122, 128, 90, 1200, 5139.4385743970779, 4738.0, 789.46040872172171
125, 1024, 90, 1200, 7532.2808969530979, 7780.0, 1388.9762802122057
126, 64, 10, 1500, 7408.3130405000429, 7574.0, 1358.2139863066568
124, 512, 90, 1200, 6069.9084988341237, 5229.0, 1434.0121084477273
127, 128, 10, 1500, 8788.9469285775831, 8985.0, 497.84650377459172
116, 64, 60, 1200, 4922.426458043371, 4584.0, 687.95614368022484
121, 64, 90, 1200, 5012.7877390788335, 4562.0, 748.15002035663656
128, 256, 10, 1500, 7429.1253541684555, 7209.0, 529.08453905826877
132, 128, 20, 1500, 7824.996483403379, 8076.0, 1605.6612151397064
130, 1024, 10, 1500, 8850.5600619994839, 8923.0, 924.78710988058333
129, 512, 10, 1500, 9189.6833720830109, 9236.0, 577.58340605915328
12, 128, 40, 0, 1214.684540916654, 543.0, 1029.8219017815175
133, 256, 20, 1500, 9065.6606076343814, 8967.0, 646.17560862768937
134, 512, 20, 1500, 9136.7712931034475, 9121.0, 562.79443483638875
131, 64, 20, 1500, 7194.1542565712043, 6909.0, 1404.2191614880244
135, 1024, 20, 1500, 8718.8910686628806, 8767.0, 619.49860847878881
136, 64, 40, 1500, 7031.3092220395611, 6891.0, 1188.4599653083387
13, 256, 40, 0, 1586.1640954855473, 1364.5, 1260.0946637035843
138, 256, 40, 1500, 7862.6217094017093, 8210.0, 1398.3100244286288
139, 512, 40, 1500, 8403.4299379524309, 8400.0, 578.23000958808905
137, 128, 40, 1500, 7051.9012710127099, 6934.0, 1315.7255642748185
143, 256, 60, 1500, 7536.8565345561747, 7326.0, 1114.5260751306507
142, 128, 60, 1500, 7200.4602921222768, 6958.0, 1365.4648461344002
140, 1024, 40, 1500, 8760.1415126921092, 8609.0, 781.45803773691398
144, 512, 60, 1500, 9137.963232113505, 9043.0, 1009.5560169930229
145, 1024, 60, 1500, 9164.4628975265023, 9359.0, 809.57937506118844
141, 64, 60, 1500, 6037.8428310796307, 5594.0, 763.46425441853887
148, 256, 90, 1500, 7020.467650397276, 6810.0, 1109.8025067231144
149, 512, 90, 1500, 7946.7883526329133, 7829.0, 1386.7030403524793
14, 512, 40, 0, 3125.0898162459212, 2903.0, 632.37540886805857
147, 128, 90, 1500, 6509.6654154581129, 6502.0, 802.8984422605281
152, 128, 10, 1800, 10238.392267199129, 10315.0, 892.96372189701844
151, 64, 10, 1800, 8938.765558912386, 9018.0, 1195.5132404507472
150, 1024, 90, 1500, 8296.8924209614561, 8814.0, 1317.0573987611945
154, 512, 10, 1800, 10572.353642987249, 10505.0, 830.11535934365088
153, 256, 10, 1800, 10209.403087951476, 10292.0, 793.55317692958886
156, 64, 20, 1800, 8701.1041038525964, 8369.0, 1441.9825152097935
155, 1024, 10, 1800, 11638.610934579439, 11687.0, 734.09417609443153
157, 128, 20, 1800, 8977.526963759321, 9371.0, 1546.8261583987894
159, 512, 20, 1800, 11483.744885567492, 11432.0, 506.39393296753713
158, 256, 20, 1800, 11642.343484353107, 10912.0, 1432.8082725917229
15, 1024, 40, 0, 4138.9210503732947, 4134.0, 328.83940916662391
160, 1024, 20, 1800, 11713.139869281045, 11714.0, 686.78749708397311
164, 512, 40, 1800, 10505.992245889387, 10465.0, 529.33485248679142
163, 256, 40, 1800, 9223.8882035466468, 9411.0, 1043.0932997895882
146, 64, 90, 1500, 5814.7561602620253, 5616.0, 571.0495918373374
162, 128, 40, 1800, 8443.7679227207409, 8337.5, 1033.9314714958559
161, 64, 40, 1800, 8673.6109189438484, 8427.5, 1243.8307277230965
168, 256, 60, 1800, 9175.9207211870253, 8987.0, 1254.7980368833664
165, 1024, 40, 1800, 11439.0308238371, 11332.0, 577.45328896516241
170, 1024, 60, 1800, 11221.983474932313, 11238.0, 554.83125944421374
169, 512, 60, 1800, 10337.454844006568, 10314.0, 803.1948415478812
167, 128, 60, 1800, 15658.010371442355, 8426.0, 790091.80727204005
171, 64, 90, 1800, 7328.0788101358794, 6994.0, 794.0417272368129
166, 64, 60, 1800, 7563.2699272146283, 7082.5, 956.98153367339512
16, 64, 60, 0, 489.59893413993012, 336.0, 405.27552828089449
175, 1024, 90, 1800, 12185.024479118005, 12159.0, 1188.4776157842678
173, 256, 90, 1800, 9012.3278262328076, 8865.0, 1283.6404230233366
176, 64, 10, 2100, 11791.594032883799, 11849.0, 1520.8570323219808
179, 512, 10, 2100, 12306.292869825251, 12435.0, 903.03448102122468
174, 512, 90, 1800, 9731.1814205738283, 9792.5, 1198.3071550901761
177, 128, 10, 2100, 12679.008231222524, 12516.0, 687.10510603534567
172, 128, 90, 1800, 7573.6900775045451, 7551.0, 965.41964740953392
180, 1024, 10, 2100, 13609.841667445555, 13665.0, 689.647530691513
17, 128, 60, 0, 1118.7862109298849, 536.0, 999.44513577088117
178, 256, 10, 2100, 12652.731477155938, 12767.0, 587.65988636374516
182, 128, 20, 2100, 11716.479141503298, 11552.0, 1202.5494425445156
181, 64, 20, 2100, 11389.41813112538, 11132.0, 1354.8273396573297
183, 256, 20, 2100, 13087.874637748902, 13278.0, 791.46729136453803
184, 512, 20, 2100, 13044.954779033917, 12891.0, 1032.7325174477435
185, 1024, 20, 2100, 12602.80691588785, 12241.0, 921.40689049882349
187, 128, 40, 2100, 10982.355382619973, 10747.0, 1354.3818054983849
186, 64, 40, 2100, 9713.8877047876576, 9680.0, 1121.1417944619059
18, 256, 60, 0, 1929.4358953914846, 2056.5, 1098.8600493537322
188, 256, 40, 2100, 12092.826545723807, 12202.5, 1474.3253760960511
191, 64, 60, 2100, 11448.433347403969, 10595.0, 91885.851254298803
189, 512, 40, 2100, 13423.392727272727, 13345.0, 528.81156952956303
193, 256, 60, 2100, 11653.563187550308, 11263.0, 1676.7439365733057
190, 1024, 40, 2100, 13505.817527795945, 13397.0, 733.31794643302885
195, 1024, 60, 2100, 13467.939900925319, 13579.0, 636.37363560235224
194, 512, 60, 2100, 12836.245669584652, 12958.0, 1009.9291030812396
192, 128, 60, 2100, 21018.487126496169, 10962.0, 1053179.5114332645
198, 256, 90, 2100, 11605.234551669735, 11316.0, 9459.3330827701284
199, 512, 90, 2100, 11932.83524694733, 11930.5, 1247.7866994642172
19, 512, 60, 0, 1817.7268965517242, 1871.0, 1187.204363873851
196, 64, 90, 2100, 9751.3463017691593, 8936.0, 54154.181287671934
1, 64, 10, 0, 1572.1451845116314, 1649.0, 1154.5824149187899
197, 128, 90, 2100, 10220.985142746164, 10273.0, 1102.2970099602446
200, 1024, 90, 2100, 13300.70441368992, 13510.0, 1094.0949957820681
202, 128, 10, 2400, 14647.120628389752, 14806.0, 921.47115303678652
201, 64, 10, 2400, 13859.060982443034, 14029.0, 952.10762427427585
203, 256, 10, 2400, 15157.170512940296, 15134.0, 534.60122341392878
205, 1024, 10, 2400, 16190.377360254253, 16200.0, 1059.3410098606641
204, 512, 10, 2400, 15185.524205607477, 15059.0, 710.17276657588707
207, 128, 20, 2400, 13974.80977054034, 13856.0, 1650.4118573661806
206, 64, 20, 2400, 13901.647788919941, 13907.5, 1033.9454060669284
208, 256, 20, 2400, 15282.382636355131, 15260.0, 931.28235105362899
209, 512, 20, 2400, 15390.462257100149, 15356.0, 538.82000659747553
210, 1024, 20, 2400, 14969.196934292924, 14867.0, 656.18006905319942
20, 1024, 60, 0, 3206.3513559903881, 3204.0, 653.9262834896864
212, 128, 40, 2400, 14054.951439009177, 13976.0, 1212.2720790156459
214, 512, 40, 2400, 15326.119421101774, 15171.0, 905.03480638662768
213, 256, 40, 2400, 14395.389696412143, 14265.0, 1287.2330182095634
219, 512, 60, 2400, 14930.218732473359, 15011.0, 747.17166721975241
215, 1024, 40, 2400, 16075.12942715634, 16167.0, 905.03031951401533
211, 64, 40, 2400, 13579.098346388164, 13472.0, 1066.4124817708355
220, 1024, 60, 2400, 15393.232266516938, 15392.0, 1186.2390501032062
218, 256, 60, 2400, 14323.312191026956, 14203.0, 1625.8233437863746
217, 128, 60, 2400, 13694.390606420928, 13776.0, 868.49017500454227
216, 64, 60, 2400, 13276.925010995456, 13426.5, 948.83207223220154
221, 64, 90, 2400, 13361.312988650694, 13243.0, 851.81555260847165
21, 64, 90, 0, 459.71537255926336, 334.0, 365.41180741682592
222, 128, 90, 2400, 13778.899569320993, 13771.0, 747.96268253450569
223, 256, 90, 2400, 14273.102446724546, 14130.0, 1390.4309669869012
226, 64, 10, 2700, 15863.413748015317, 15767.0, 954.30573575401422
224, 512, 90, 2400, 14379.655533125344, 14165.5, 1233.5616440542062
229, 512, 10, 2700, 17845.403344856582, 17970.0, 627.13187292433429
228, 256, 10, 2700, 17024.312313153961, 17207.0, 829.88101697153058
230, 1024, 10, 2700, 17212.164112149534, 17109.0, 505.98080306193697
227, 128, 10, 2700, 15982.580156950673, 16241.0, 1195.0493507747351
225, 1024, 90, 2400, 15816.661837554911, 15727.0, 708.58463339481546
233, 256, 20, 2700, 16706.423253203629, 16730.0, 816.57148491171915
232, 128, 20, 2700, 16410.826091002142, 16188.0, 1342.554776465031
231, 64, 20, 2700, 16288.556014540647, 16194.0, 1165.4977706424888
22, 128, 90, 0, 686.37814888196999, 340.0, 13138.124591928434
234, 512, 20, 2700, 17014.019433803605, 17069.0, 685.24515342961172
235, 1024, 20, 2700, 16958.639207994769, 16991.0, 815.91024054017873
237, 128, 40, 2700, 15870.658035385182, 15711.0, 1059.5941476081969
236, 64, 40, 2700, 15463.789969893836, 15341.0, 906.97127404971855
238, 256, 40, 2700, 16121.764776505357, 16197.5, 1207.7665516959132
239, 512, 40, 2700, 16718.72455762569, 16479.0, 815.31947265547865
23, 256, 90, 0, 1236.7482590529248, 644.0, 919.30560724359532
241, 64, 60, 2700, 15935.115095016135, 15983.0, 938.05154457019603
240, 1024, 40, 2700, 18099.76811729548, 18024.0, 558.65792969308961
244, 512, 60, 2700, 16927.877907519851, 16856.0, 712.20614569644522
243, 256, 60, 2700, 16092.101408208828, 16200.0, 1066.2877276908021
242, 128, 60, 2700, 15709.679277942631, 15625.0, 971.33160649101376
245, 1024, 60, 2700, 17605.047409762483, 17625.0, 510.76986497048142
247, 128, 90, 2700, 15401.798430848845, 15436.0, 1248.7143808969611
249, 512, 90, 2700, 16694.146649219554, 16622.0, 1378.7207486601476
246, 64, 90, 2700, 15537.868721536532, 15418.0, 951.17416011904629
251, 64, 10, 3000, 18299.574756736525, 18211.5, 1327.5163176268777
24, 512, 90, 0, 1825.2858067124948, 2314.0, 1067.0217922101144
248, 256, 90, 2700, 16508.946018651364, 16257.0, 1556.4309651603007
252, 128, 10, 3000, 18651.450388104367, 18538.0, 703.02412565319173
256, 64, 20, 3000, 18115.578384588192, 17990.0, 1246.3968437201006
255, 1024, 10, 3000, 19627.550528185471, 19638.0, 439.90632176680873
253, 256, 10, 3000, 18800.315145286368, 18658.0, 1159.237693604412
250, 1024, 90, 2700, 17921.304591789019, 17869.0, 740.43821491851349
254, 512, 10, 3000, 18395.463184451506, 18366.0, 1335.2484662218471
258, 256, 20, 3000, 18207.915772782391, 18285.0, 750.11874375996319
257, 128, 20, 3000, 18047.499069421181, 17779.5, 1329.252186267415
25, 1024, 90, 0, 3269.5433699759533, 3307.5, 682.53973507799435
259, 512, 20, 3000, 19279.188247384154, 19241.0, 505.8278803252569
261, 64, 40, 3000, 16477.584191176469, 16461.0, 1103.8633845599484
264, 512, 40, 3000, 19037.961865594916, 19134.0, 1065.6989171967491
262, 128, 40, 3000, 18133.540811755218, 17990.0, 1269.94245847308
263, 256, 40, 3000, 18356.930219627466, 17901.0, 1475.2422083187
265, 1024, 40, 3000, 19203.069413303438, 19278.0, 581.37315284266185
260, 1024, 20, 3000, 18661.768037383179, 18734.0, 618.60781306111937
266, 64, 60, 3000, 17627.481598128317, 17460.0, 979.81612005868737
267, 128, 60, 3000, 17843.314638318672, 17794.0, 1015.0731054025744
270, 1024, 60, 3000, 18986.358070847742, 19174.0, 1514.359709072934
269, 512, 60, 3000, 19019.3099672438, 19051.0, 769.0481475141828
268, 256, 60, 3000, 17859.702538247566, 17816.0, 1004.9759436228292
273, 256, 90, 3000, 18040.582581761864, 17821.0, 1208.2226204072103
26, 64, 10, 300, 2492.6230600471276, 2925.0, 1310.8798033420439
271, 64, 90, 3000, 17532.42590882862, 17356.0, 964.40992789524068
272, 128, 90, 3000, 17774.071161048691, 17784.0, 1078.9504388705282
27, 128, 10, 300, 2945.7069631664808, 2519.0, 758.44721875742709
31, 64, 20, 300, 2074.5872135102532, 1751.0, 938.49663851501145
274, 512, 90, 3000, 18483.830356307866, 18415.0, 1306.256797469696
28, 256, 10, 300, 4278.4389427615206, 4180.0, 481.1356332923142
275, 1024, 90, 3000, 19284.172555617872, 19170.0, 693.27868599953138
29, 512, 10, 300, 4639.4809062044105, 4640.0, 254.78253532641685
32, 128, 20, 300, 2559.5364634546049, 2858.0, 1248.0687439825363
30, 1024, 10, 300, 4367.4831759656654, 4425.0, 459.64827691651055
33, 256, 20, 300, 3660.5064041949627, 3894.0, 563.2261313564909
34, 512, 20, 300, 4197.5683144524546, 4066.0, 693.14784720847535
2, 128, 10, 0, 2786.8011177987964, 2811.0, 393.73959045165088
35, 1024, 20, 300, 4795.5817666752509, 4805.0, 608.9591419237513
38, 256, 40, 300, 2852.8376143141154, 2484.0, 1045.1486018899316
36, 64, 40, 300, 1577.1101390498261, 1215.5, 777.43168376490519
37, 128, 40, 300, 1951.5802203065134, 1231.0, 1047.7319981697183
40, 1024, 40, 300, 4198.6310279732279, 4195.0, 199.79445534903502
3, 256, 10, 0, 2989.8846450948417, 2976.0, 225.13109980362646
39, 512, 40, 300, 4344.2558399175541, 4387.5, 780.98234802912987
42, 128, 60, 300, 1703.210705994811, 1154.0, 947.18471211190126
44, 512, 60, 300, 3898.4458068941863, 3831.0, 558.36761472948672
43, 256, 60, 300, 2788.3983015219037, 3220.0, 981.27368091120854
49, 512, 90, 300, 3026.9679117573328, 3043.0, 1380.7222425462469
41, 64, 60, 300, 1569.5684818481848, 1309.0, 5937.7508702474479
45, 1024, 60, 300, 4287.9164092001374, 4360.0, 573.82735488270657
51, 64, 10, 600, 3828.3172687510123, 3956.0, 1025.3008686401597
47, 128, 90, 300, 1580.9503837719299, 1267.0, 731.66009624807259
50, 1024, 90, 300, 4303.717990553886, 4382.0, 625.32227815501437
4, 512, 10, 0, 2748.4277868360077, 2711.0, 128.54136050132513
52, 128, 10, 600, 4941.2040746153189, 4898.0, 467.48593389129547
53, 256, 10, 600, 5341.8227619946783, 5460.0, 786.58911254885118
48, 256, 90, 300, 2339.6337979094078, 1622.0, 1143.3590165557082
56, 64, 20, 600, 3298.480788327859, 2578.0, 1105.6025461199349
46, 64, 90, 300, 1720.1950152016304, 1374.0, 7274.2220944537767
54, 512, 10, 600, 5570.6838039653248, 5618.0, 399.55028976523153
55, 1024, 10, 600, 5971.3692889041567, 5662.0, 661.21367191655736
58, 256, 20, 600, 5241.8720900266298, 5131.0, 661.07707345553649
59, 512, 20, 600, 5071.0520127027721, 5201.0, 379.11318201694712
5, 1024, 10, 0, 3388.2543617205042, 3449.0, 731.18002765884285
57, 128, 20, 600, 4062.0949508305098, 4638.0, 1342.5045134212601
60, 1024, 20, 600, 5582.2538402128212, 5587.0, 167.44711894166693
62, 128, 40, 600, 3397.3724370828977, 2658.0, 1116.562239758895
64, 512, 40, 600, 5537.5408724025419, 5383.0, 549.91459987106953
63, 256, 40, 600, 4247.1639480003314, 4583.0, 1308.7777726598238
68, 256, 60, 600, 3965.1890998474319, 4129.0, 1178.9749283889125
65, 1024, 40, 600, 5299.2208704592185, 5252.0, 644.87675981477719
6, 64, 20, 0, 1030.1331493361181, 379.0, 947.07879071091725
61, 64, 40, 600, 2910.8060344827586, 2403.0, 848.09196706031673
70, 1024, 60, 600, 5256.2559855831114, 5476.0, 466.42286828767652
75, 1024, 90, 600, 5705.8100146010474, 5851.0, 639.4710843292537
73, 256, 90, 600, 3543.58347485786, 3051.0, 1101.9829555281938
72, 128, 90, 600, 2884.3369192034793, 2445.0, 731.83628541546329
69, 512, 60, 600, 5229.0456813489336, 5134.0, 583.08006754699966
66, 64, 60, 600, 2763.0359148273751, 2413.0, 746.29993961309799
74, 512, 90, 600, 4184.4084152179394, 4362.0, 1298.1288685675554
67, 128, 60, 600, 3055.9635895063766, 2503.0, 1020.2628221151155
71, 64, 90, 600, 2916.5339614627178, 2587.0, 9898.4816737628717
80, 1024, 10, 900, 6435.9818930747451, 6469.0, 322.62555415192145
76, 64, 10, 900, 5328.4260566304074, 5289.0, 1646.1940539666241
78, 256, 10, 900, 6811.3471244635193, 6731.0, 464.5238625773149
79, 512, 10, 900, 6151.4482107611775, 6175.0, 389.71484270972752
77, 128, 10, 900, 5964.5972842901338, 6172.0, 589.72809563843953
7, 128, 20, 0, 1541.665234375, 1584.0, 1108.2831355908809
82, 128, 20, 900, 4858.9582437572353, 5358.0, 1288.8496256450819
81, 64, 20, 900, 4722.8487177412835, 4507.0, 1170.4047993377901
85, 1024, 20, 900, 7037.1704760268085, 6718.0, 625.6161522930239
83, 256, 20, 900, 6554.2090565389244, 6527.0, 403.07366827393196
86, 64, 40, 900, 4344.4264664210823, 3783.0, 1010.9788071624417
84, 512, 20, 900, 6194.263135302198, 6184.0, 387.38283195038059
88, 256, 40, 900, 5556.7265764615777, 6007.0, 1421.2159804608179
90, 1024, 40, 900, 6691.7073463783045, 6794.0, 558.4324892138153
87, 128, 40, 900, 4555.9669558657115, 4433.0, 1117.7185592911931
89, 512, 40, 900, 7134.3526071244196, 7040.0, 689.11458227524724
8, 256, 20, 0, 3542.1102511179911, 3509.0, 724.42915919759832
92, 128, 60, 900, 4219.081506985367, 3567.0, 1008.951049029734
93, 256, 60, 900, 4508.0130629604309, 3760.0, 1248.674269672623
95, 1024, 60, 900, 6351.4769587230758, 6447.0, 554.42560879767802
91, 64, 60, 900, 3851.7542346228151, 3580.0, 1162.2321179753753
94, 512, 60, 900, 6279.4100429184546, 6278.0, 395.75392842624507
9, 512, 20, 0, 4497.2020938814039, 4660.0, 668.69484862102308
98, 256, 90, 900, 4855.5153840737876, 4240.0, 1246.3179638040044
99, 512, 90, 900, 5329.8069052631581, 5438.0, 1385.445570166283
97, 128, 90, 900, 3884.7896498147484, 3527.0, 663.50658683341078
96, 64, 90, 900, 4640.7231655940659, 3702.0, 37898.541820333208
